{
    "builders": [
        {
            "type" : "googlecompute",
            "account_file" : "../../secrets/cp-17375-440a0eb1c8f6.json",
            "project_id" : "cp-17375",
            "source_image_family" : "ubuntu-1604-lts",
            "zone" : "us-east1-b",
            "ssh_username" : "ubuntu",
            "image_name" : "checkpoint-{{timestamp}}",
            "image_family": "initial-builder",
            "image_description": "packer image to bootstrap jenkins",
            "instance_name": "cpvm-{{uuid}}",
            "machine_type": "n1-standard-1",
            "disk_type": "pd-ssd"
        }
    ],


    "provisioners": [
    {
      "type": "shell",
      "script": "../scripts/jsetups.sh",
      "pause_before": "10s"
    }
  ]
}

